[
   {
      "name":"default",
      "restitution":0.2,
      "friction":0.3
   },
   {
      "name":"stone_rough",
      "restitution":0.05,
      "friction":0.6
   },
   {
      "name":"stone_smooth",
      "restitution":0.05,
      "friction":0.3
   },
   {
      "name":"entity",
      "restitution":0.8,
      "friction":0.7
   }
]